Expression_pattern_graph
…
## for exp1 v1.5annotation
counts.exp1.v1.5 <- readr::read_csv(file.path("..","v1.5annotation","20170617-samples","input","raw_counts.csv.gz"),col_names=TRUE)

## Parsed with column specification:
## cols(
##   .default = col_double(),
##   target_id = col_character()
## )

## See spec(...) for full column specifications.

counts.exp1.v1.5 # make sure this is v1.5 annotation (look target_id column)

## # A tibble: 44,239 x 73
##    target_id wyo_leaf_FPsc_0 wyo_leaf_FPsc_0 wyo_leaf_FPsc_0
##    <chr>                <dbl>            <dbl>            <dbl>
##  1 Bra000001             4                2                2   
##  2 Bra000002             2.00             3.01             9.01
##  3 Bra000003          2445.             401.            5356.  
##  4 Bra000004             7                5               17   
##  5 Bra000005           944.             906.            1201.  
##  6 Bra000006           689              638.             827   
##  7 Bra000007            50               36               20   
##  8 Bra000008             1                2                2   
##  9 Bra000009          1710.            1617.            3331.  
## 10 Bra000010            21               12               33   
## # ... with 44,229 more rows, and 69 more variables:
## #   wyo_leaf_FPsc_04_141 <dbl>, wyo_leaf_FPsc_04_170 <dbl>,
## #   wyo_leaf_FPsc_04_174 <dbl>, wyo_leaf_FPsc_05_178 <dbl>,
## #   wyo_leaf_FPsc_05_181 <dbl>, wyo_leaf_FPsc_05_218 <dbl>,
## #   wyo_leaf_FPsc_07_272 <dbl>, wyo_leaf_FPsc_07_292 <dbl>,
## #   wyo_leaf_FPsc_07_296 <dbl>, wyo_leaf_FPsc_10_399 <dbl>,
## #   wyo_leaf_FPsc_10_428 <dbl>, wyo_leaf_FPsc_10_435 <dbl>,
## #   wyo_leaf_FPsc_12_508 <dbl>, wyo_leaf_FPsc_12_517 <dbl>,
## #   wyo_leaf_FPsc_12_523 <dbl>, wyo_leaf_R500_02_055 <dbl>,
…
## for exp1 v3.0annotation
counts.exp1.v3.0 <- readr::read_csv(file.path("..","v3.0annotation","20170617-samples","input","20170617_V3.0_raw_counts.csv.gz"),col_names=TRUE)

## Parsed with column specification:
## cols(
##   .default = col_double(),
##   target_id = col_character()
## )
## See spec(...) for full column specifications.

counts.exp1.v3.0 # make sure this is v3.0 annotation (look target_id column)

## # A tibble: 46,250 x 73
##    target_id wyo_leaf_FPsc_0 wyo_leaf_FPsc_0 wyo_leaf_FPsc_0
##    <chr>                <dbl>            <dbl>            <dbl>
##  1 BraA01g0             5                2                  4 
##  2 BraA01g0           101.              78.1              117.
##  3 BraA01g0             5.02             6.06               7 
##  4 BraA01g0           231.             301.               424.
##  5 BraA01g0             8               13                 10 
##  6 BraA01g0             8                0                  9 
##  7 BraA01g0            65               87.5              106 
##  8 BraA01g0           340              320                430 
##  9 BraA01g0           151.              98.4              157.
## 10 BraA01g0           137.              63.3              158.
## # ... with 46,240 more rows, and 69 more variables:
## #   wyo_leaf_FPsc_04_141 <dbl>, wyo_leaf_FPsc_04_170 <dbl>,
## #   wyo_leaf_FPsc_04_174 <dbl>, wyo_leaf_FPsc_05_178 <dbl>,
## #   wyo_leaf_FPsc_05_181 <dbl>, wyo_leaf_FPsc_05_218 <dbl>,
## #   wyo_leaf_FPsc_07_272 <dbl>, wyo_leaf_FPsc_07_292 <dbl>,
## #   wyo_leaf_FPsc_07_296 <dbl>, wyo_leaf_FPsc_10_399 <dbl>,
## #   wyo_leaf_FPsc_10_428 <dbl>, wyo_leaf_FPsc_10_435 <dbl>,
## #   wyo_leaf_FPsc_12_508 <dbl>, wyo_leaf_FPsc_12_517 <dbl>,
## #   wyo_leaf_FPsc_12_523 <dbl>, wyo_leaf_R500_02_055 <dbl>,
…
## for exp3 v3.0annotation
counts.exp3.v3.0 <- readr::read_csv(file.path("..","v3.0annotation","20180202-samples","input","20180202_V3.0_raw_counts.csv.gz"),col_names=TRUE)

## Parsed with column specification:
## cols(
##   .default = col_double(),
##   target_id = col_character()
## )
## See spec(...) for full column specifications.

counts.exp3.v3.0

## # A tibble: 46,250 x 65
##    target_id a1_5e_live_cr_3 a2_5e_dead_cr_3 a3_5e_dead_un_3
##    <chr>                <dbl>            <dbl>            <dbl>
##  1 BraA01g0             6                3                5.54
##  2 BraA01g0           103.              80.5             51.9 
##  3 BraA01g0             2.06             2.02             1.01
##  4 BraA01g0           212.             213.             339.  
##  5 BraA01g0            11               15               27   
##  6 BraA01g0             0                0                0   
##  7 BraA01g0            11               26               36   
##  8 BraA01g0            68               96               97   
##  9 BraA01g0           119.             100.             205.  
## 10 BraA01g0             7.57            45.4              7.57
## # ... with 46,240 more rows, and 61 more variables:
## #   a4_5e_dead_un_3_a47_S4 <dbl>, a5_5e_dead_cr_3_a54_S5 <dbl>,
## #   a6_5e_live_cr_3_a56_S6 <dbl>, a7_5e_live_un_3_a57_S7 <dbl>,
## #   a8_5e_live_un_3_a60_S8 <dbl>, b1_5e_live_cr_3_a42_S9 <dbl>,
## #   b2_5e_dead_cr_3_a44_S10 <dbl>, b3_5e_dead_un_3_a46_S11 <dbl>,
## #   b4_5e_dead_un_3_a47_S12 <dbl>, b5_5e_dead_cr_3_a54_S13 <dbl>,
## #   b6_5e_live_cr_3_a56_S14 <dbl>, b7_5e_live_un_3_a57_S15 <dbl>,
## #   b8_5e_live_un_3_a60_S16 <dbl>, c1_5e_live_un_6_a103_S17 <dbl>,
## #   c2_5e_dead_cr_6_a104_S18 <dbl>, c3_5e_live_cr_6_a109_S19 <dbl>,
…
